158 90 4
0 0.25 51
0.25 0.25 42
0.5 0.25 42
0.75 0.25 42
1.25 0.25 42
1.5 0.25 42
1.75 0.25 42
2 0.25 42
2.25 0.25 42
2.5 0.25 42
2.75 0.25 42
3.25 0.25 42
3.5 0.25 42
3.75 0.25 42
0 1 35
1 1 35
2 1 35
3 1 35
1 0.25 48
3 0.25 48