80 110 4
0 0.5 51
0.5 0.5 51
0 0.5 42
0.5 0.5 42
1 0.5 42
1.5 0.5 42
2 0.25 42
2.5 0.25 42
3 0.5 42
3.5 0.5 42
0 0.5 35
0.5 0.5 35
1 0.5 38
1.5 0.5 35
2 0.25 38
2.25 0.25 35
2.75 0.25 35
3 0.5 38
3.5 0.5 35