113 75 4
0 0.25 42
0.25 0.25 42
0.5 0.25 42
0.75 0.25 42
1.25 0.5 42
1.5 0.25 42
1.75 0.25 42
2 0.25 42
2.25 0.25 42
2.5 0.25 42
2.75 0.25 42
3.25 0.25 42
3.5 0.25 42
3.75 0.25 42
0 0.5 35
0.5 0.5 35
1 0.5 35
1.5 0.5 35
2 0.5 35
2.5 0.5 35
3 0.5 35
3.5 0.5 35
1 0.25 48
3 0.25 48