C D E F G A B C
Cs Ds F Fs Gs As C Cs
D E Fs G A B Cs D
Ds F G Gs As C D Ds
E Fs Gs A B Cs Ds E
F G A As C D E F
Fs Gs As B Cs Ds F Fs
G A B C D E Fs G
Gs As C Cs Ds F G Gs
A B Cs D E Fs Gs A
As C D Ds F G A As
B Cs Ds E Fs Gs As B
C D Ds F G Gs As C
Cs Ds E Fs Gs A B Cs
D E F G A As C D
Ds F Fs Gs As B Cs Ds
E Fs G A B C D E
F G Gs As C Cs Ds F
Fs Gs A B Cs D E Fs
G A As C D Ds F G
Gs As B Cs Ds E Fs Gs
A B C D E F G A
As C Cs Ds F Fs Gs As
B Cs D E Fs G A B
